// Jest Snapshot v1, https://goo.gl/fbAQLP

exports[`Editing name field renders a form and a button when in editing mode 1`] = `
.c2 {
  text-align: left;
}

.c0 {
  margin-bottom: 0.7rem;
}

.c1 {
  display: -webkit-box;
  display: -webkit-flex;
  display: -ms-flexbox;
  display: flex;
  -webkit-box-pack: justify;
  -webkit-justify-content: space-between;
  -ms-flex-pack: justify;
  justify-content: space-between;
  -webkit-align-items: center;
  -webkit-box-align: center;
  -ms-flex-align: center;
  align-items: center;
  position: relative;
}

.c3 {
  background-color: aquamarine;
  display: -webkit-box;
  display: -webkit-flex;
  display: -ms-flexbox;
  display: flex;
  -webkit-box-pack: justify;
  -webkit-justify-content: space-between;
  -ms-flex-pack: justify;
  justify-content: space-between;
  -webkit-align-items: center;
  -webkit-box-align: center;
  -ms-flex-align: center;
  align-items: center;
  position: relative;
}

.c4 {
  border: 2px solid black;
  background: transparent;
}

.c5 {
  position: absolute;
  right: -50px;
  border: 2px solid black;
}

<ol>
  <li
    class="c0"
  >
    <div
      class="c1"
    >
      <span
        class="c2"
      >
        Tadeusz
      </span>
      <span>
        0
        :
        37
        :
        456
      </span>
    </div>
  </li>
  <li
    class="c0"
  >
    <div
      class="c1"
    >
      <span
        class="c2"
      >
        Michalek
      </span>
      <span>
        0
        :
        21
        :
        789
      </span>
    </div>
  </li>
  <li
    class="c0"
  >
    <div
      class="c1"
    >
      <span
        class="c2"
      >
        Anton
      </span>
      <span>
        0
        :
        14
        :
        123
      </span>
    </div>
  </li>
  <li
    class="c0"
  >
    <div
      class="c1"
    >
      <span
        class="c2"
      >
        Lidiusz
      </span>
      <span>
        0
        :
        49
        :
        789
      </span>
    </div>
  </li>
  <li
    class="c0"
  >
    <div
      class="c3"
    >
      <form>
        <input
          class="c4"
          type="text"
          name="name"
          placeholder="Your name"
          value="Player"
        />
      </form>
      <span>
        0
        :
        00
        :
        111
      </span>
      <button
        class="c5"
      >
        OK
      </button>
    </div>
  </li>
</ol>
`;

exports[`renders leaders without crashing 1`] = `
.c2 {
  text-align: left;
}

.c0 {
  margin-bottom: 0.7rem;
}

.c1 {
  display: -webkit-box;
  display: -webkit-flex;
  display: -ms-flexbox;
  display: flex;
  -webkit-box-pack: justify;
  -webkit-justify-content: space-between;
  -ms-flex-pack: justify;
  justify-content: space-between;
  -webkit-align-items: center;
  -webkit-box-align: center;
  -ms-flex-align: center;
  align-items: center;
  position: relative;
}

<div>
  <h1>
    Well done!
  </h1>
  <ol>
    <li
      class="c0"
    >
      <div
        class="c1"
      >
        <span
          class="c2"
        >
          Tadeusz
        </span>
        <span>
          0
          :
          37
          :
          456
        </span>
      </div>
    </li>
    <li
      class="c0"
    >
      <div
        class="c1"
      >
        <span
          class="c2"
        >
          Michalek
        </span>
        <span>
          0
          :
          21
          :
          789
        </span>
      </div>
    </li>
    <li
      class="c0"
    >
      <div
        class="c1"
      >
        <span
          class="c2"
        >
          Anton
        </span>
        <span>
          0
          :
          14
          :
          123
        </span>
      </div>
    </li>
    <li
      class="c0"
    >
      <div
        class="c1"
      >
        <span
          class="c2"
        >
          Lidiusz
        </span>
        <span>
          0
          :
          49
          :
          789
        </span>
      </div>
    </li>
  </ol>
</div>
`;
